[
  {
    "id": 1,
    "question": "<strong>en algunos momentos del dia</strong>,<br> &iquest;Tu mal aliento te indispone?"
  },
  {
    "id": 2,
    "question": "<strong>si pasas la lengua por tus dientes</strong>,<br> &iquest;sientes la superficie rugosa?",
    "sub_questions": [
      { "question": "<strong>pidale a su paciente que pase la lengua por los molares y pregunte otra vez</strong>,<br> &iquest;sientes su superficie rugosa?" }
    ]
  },
  {
    "id": 3,
    "question": "<strong>al usar la seda dental o al cepillar tus dientes</strong>,<br> &iquest;sangran tus encías?"
  }
]